{
  "sources": [
    {
      "path": null,
      "namespaces": {
        "urn://x-artefacts-smev-gov-ru/services/service-adapter/types": "Schemas.Adapter",
        "urn://x-artefacts-smev-gov-ru/services/service-adapter/types/faults": "Schemas.Adapter.Faults"
      }
    }
  ],
  "CollectionSettersMode": "PublicWithoutConstructorInitialization",
  "CompactTypeNames": true,
  "EnableNullableReferenceAttributes": true,
  "GenerateNullables": true,
  "NetCoreSpecificCode": true
}